{
  "Portalconfig":
  {
    "PortalTitle": "Master",
    "PortalLogo": "../img/hh-logo.png",
    "LogoLink": "http://geoinfo.hamburg.de",
    "LogoToolTip": "Landesbetrieb Geoinformation und Vermessung",
    "searchBar": {
        "gazetteer": {
            "minChars": 3,
            "serviceId": "6",
            "searchStreets": true,
            "searchHouseNumbers": true,
            "searchDistricts": true,
            "searchParcels": true,
            "searchStreetKey": true
        },
        "bkg": {
            "minChars": 3,
            "suggestServiceId": "4",
            "geosearchServiceId": "5",
            "extent": [454591, 5809000, 700000, 6075769],
            "suggestCount": 10,
            "epsg": "EPSG:25832",
            "filter": "filter=(typ:*)",
            "score": 0.6
        },
        "specialWFS": {
            "minChar": 3,
            "definitions": [
                {
                    "url": "/geodienste_hamburg_de/HH_WFS_Bebauungsplaene",
                    "data": "service=WFS&request=GetFeature&version=2.0.0&typeNames=prosin_festgestellt&propertyName=planrecht",
                    "name": "bplan"
                },
                {
                    "url": "/geodienste_hamburg_de/HH_WFS_Bebauungsplaene",
                    "data": "service=WFS&request=GetFeature&version=2.0.0&typeNames=prosin_imverfahren&propertyName=plan",
                    "name": "bplan"
                }
            ]
        },
        "visibleWFS": {
            "minChars": 3
        },
        "zoomLevel": 9,
        "placeholder": "Suche nach Adresse/Krankenhaus/B-Plan"
    },
    "mapView": {
        "backgroundImage": "/../../components/lgv-config/img/backgroundCanvas.jpeg",
        "startCenter": [561210, 5932600]
    },
    "menu": {
      "tree": {
        "name": "Themen",
        "glyphicon": "glyphicon-list",
        "isInitOpen": true
      },
      "tools": {
        "name": "Werkzeuge",
        "glyphicon": "glyphicon-wrench",
        "children": {
          "parcelSearch": {
            "name": "Flurstückssuche",
            "glyphicon": "glyphicon-search",
            "serviceId": "6",
            "StoredQueryID": "Flurstueck",
            "configJSON": "/../../components/lgv-config/gemarkungen_hh.json",
            "parcelDenominator": false
          },
          "measure": {
            "name": "Strecke / Fläche messen",
            "glyphicon": "glyphicon-resize-full",
            "onlyDesktop": true
          },
          "coord": {
            "name": "Koordinaten abfragen",
            "glyphicon": "glyphicon-screenshot"
          },
          "gfi": {
            "name": "Informationen abfragen",
            "glyphicon": "glyphicon-info-sign",
            "isActive": true
          },
          "print": {
            "name": "Karte drucken",
            "glyphicon": "glyphicon-print"
          },
          "searchByCoord": {
            "name": "Koordinatensuche",
            "glyphicon": "glyphicon-record"
          },
          "kmlimport": {
            "name": "KML Import",
            "glyphicon": "glyphicon-import"
          },
          "wfsFeatureFilter": {
            "name": "Filter",
            "glyphicon": "glyphicon-filter"
          },
          "extendedFilter": {
            "name": "Erweiterter Filter",
            "glyphicon": "glyphicon-filter"
          },
          "routing": {
            "name": "Routenplaner",
            "glyphicon": "glyphicon-road",
            "viomRoutingID": "7",
            "bkgSuggestID": "4",
            "bkgGeosearchID": "5"
          },
          "draw": {
            "name": "Zeichnen / Schreiben",
            "glyphicon": "glyphicon-pencil"
          },
          "featureLister": {
              "name": "Liste",
              "glyphicon": "glyphicon-menu-hamburger",
              "lister": 10
          },
          "animation": {
            "name": "Pendler Animation",
            "glyphicon": "glyphicon-play-circle"
          }
        }
      },
      "legend": {
        "name": "Legende",
        "glyphicon": "glyphicon-book"
      },
      "contact": {
          "name": "Kontakt",
          "glyphicon": "glyphicon-envelope",
          "serviceID": "80001",
          "includeSystemInfo": true
      }
    },
    "controls": {
      "toggleMenu": true,
      "fullScreen": true,
      "zoom": true,
      "orientation": "once",
      "poi": true,
      "attributions": true
    },
    "scaleLine": true,
    "Baumtyp": "light"
  },
  "Themenconfig":
  {
    "Hintergrundkarten":
    {
      "Layer": [
        {
          "id": "453"
        },
        {
          "id": "452"
        },
        {
          "id": ["713", "714", "715", "716"],
          "name": "Geobasiskarten (schwarz-weiß)",
          "visibility": true
        }
      ]
    },
    "Fachdaten":
    {
      "Layer": [
        {
          "id": "1748"
        },
        {
          "id": "1562",
          "visibility": true,
          "layerAttribution": "<span>Attributierung für Fachlayer Test Test Test Test Test Test Test Test</span>"
        },
        {
          "id": "2128",
          "styleId": "2128",
          "visibility": false,
          "clusterDistance": 0,
          "searchField": "",
          "mouseHoverField": "",
          "filterOptions": [],
          "styleLabelField": ""
        },
        {
          "id": "3302",
          "gfiTheme": "trinkwasser",
          "visibility": false,
          "featureCount": 5
        },
        {
          "id": "2059",
          "visibility": false,
          "styleId": "2059",
          "clusterDistance": 30,
          "styleField": "kategorie"
        },
        {
          "id": "4926",
          "visibility": false,
          "styleable": true,
          "geomType": "Polygon",
          "attributesToStyle": ["ErreichbareArbeitsplaetzein30Min"]
        },
        {
          "id": "2003",
          "visibility": false,
          "styleId": "2003",
          "mouseHoverField": "GEBIETSNAME"
        },
        {
            "id": "2714",
            "gfiTheme": "reisezeiten",
            "styleId": "2119"
        },
        {
          "id": "4905",
          "visibility": false,
          "gfiTheme": "table",
          "featureCount": 20
        },
        {
           "id": "2404",
           "visibility": false,
           "styleId": "45",
           "clusterDistance": 40,
           "routable": true
        },
        {
           "id": "4479",
           "visibility": false
        },
        {
          "id": ["4537", "4538"],
          "name": "Eignungsflächen",
          "visibility": false,
          "legendURL": ["http://www.geoportal-hamburg.de/legende/legende_solar.png"],
          "gfiTheme": "solaratlas",
          "attributions": "<span>Darstellung der Eignungsflächen ab Maßstab 1: 5000 </span>"
        },
        {
          "id": "2407",
          "visibility": false,
          "infoFormat": "text/html"
        },
        {
          "id": "1711",
          "styleId": "1711",
          "visibility": true,
          "layerAttribution": "<span>Attributierung für Fachlayer</span>",
          "mouseHoverField": ["name", "strasse"],
          "searchField": "name",
          "extendedFilter": true,
          "filterOptions": [
            {
              "fieldName": "teilnahme_geburtsklinik",
              "filterType": "combo",
              "filterName": "Geburtsklinik",
              "filterString": ["*", "Ja", "Nein"]
            },
            {
              "fieldName": "teilnahme_notversorgung",
              "filterType": "combo",
              "filterName": "Not- und Unfallversorgung",
              "filterString": ["*", "Ja", "Eingeschränkt", "Nein"]
            }
          ]
        },
        {
          "id": "753",
          "styleId": "753",
          "visibility": false,
          "styleField": "Leistungsarten",
          "mouseHoverField": "Name",
          "extendedFilter": true,
          "filterOptions": [
            {
              "fieldName": "Bezirk",
              "filterType": "combo",
              "filterName": "Bezirk",
              "filterString": ["*", "Altona"]
            }
          ]
        },
        {
          "id":[{"id": "946"
            },
            {
              "id": "947"
            }
          ],
          "name": "Verkehrslage auf Autobahnen",
          "layerAttribution": {
            "text": "",
            "channel": "Verkehrsfunctions",
            "eventname": "aktualisiereverkehrsnetz",
            "timeout": 60000
          },
          "visibility": false
        }
      ]
    }
  }
}
